{
  "teams": [{
    "id": "T1",
    "displayName": "Team 1"
  }, {
    "id": "T2",
    "displayName": "Team 2"
  }, {
    "id": "T3",
    "displayName": "Team 3"
  }, {
    "id": "T4",
    "displayName": "Team 4"
  }, {
    "id": "T5",
    "displayName": "Team 5"
  }, {
    "id": "T6",
    "displayName": "Team 6"
  }]
}